%YAML 1.1
%TAG !u! tag:unity3d.com,2011:
--- !u!65 &1083985273
BoxCollider:
  m_ObjectHideFlags: 0
  m_CorrespondingSourceObject: {fileID: 0}
  m_PrefabInstance: {fileID: 0}
  m_PrefabAsset: {fileID: 0}
  m_GameObject: {fileID: 3800986702288475068}
  m_Material: {fileID: 0}
  m_IsTrigger: 0
  m_Enabled: 1
  serializedVersion: 2
  m_Size: {x: 0.08812595, y: 0.14937653, z: 0.08680504}
  m_Center: {x: 0, y: 0.068176575, z: 0}
--- !u!114 &1083985272
MonoBehaviour:
  m_ObjectHideFlags: 0
  m_CorrespondingSourceObject: {fileID: 0}
  m_PrefabInstance: {fileID: 0}
  m_PrefabAsset: {fileID: 0}
  m_GameObject: {fileID: 3800986702288475068}
  m_Enabled: 1
  m_EditorHideFlags: 0
  m_Script: {fileID: 11500000, guid: fc95fc55d3f5b3d41a5657fe241fb163, type: 3}
  m_Name: 
  m_EditorClassIdentifier: 
  attack_recoil: 1.3
  attack_range: 10
  damage: 30
  anim: {fileID: 8455948747701959315}
--- !u!111 &8455948747701959315
Animation:
  m_ObjectHideFlags: 0
  m_CorrespondingSourceObject: {fileID: 0}
  m_PrefabInstance: {fileID: 0}
  m_PrefabAsset: {fileID: 0}
  m_GameObject: {fileID: 3800986702288475068}
  m_Enabled: 1
  serializedVersion: 3
  m_Animation: {fileID: 7400000, guid: a5ea117a2b123564a83a2dbd1c9ea4cf, type: 3}
  m_Animations:
  - {fileID: 7400000, guid: a5ea117a2b123564a83a2dbd1c9ea4cf, type: 3}
  - {fileID: 7400000, guid: dfc15c633f0d98141920018f79a042a6, type: 3}
  m_WrapMode: 0
  m_PlayAutomatically: 1
  m_AnimatePhysics: 0
  m_CullingType: 0
--- !u!1001 &3800986702288442706
PrefabInstance:
  m_ObjectHideFlags: 0
  serializedVersion: 2
  m_Modification:
    m_TransformParent: {fileID: 0}
    m_Modifications:
    - target: {fileID: 100078, guid: 5a35c5f0a89b9654d897ccd7c8f81bd0, type: 3}
      propertyPath: m_Name
      value: Skeleton@Skin
      objectReference: {fileID: 0}
    - target: {fileID: 100078, guid: 5a35c5f0a89b9654d897ccd7c8f81bd0, type: 3}
      propertyPath: m_Layer
      value: 8
      objectReference: {fileID: 0}
    - target: {fileID: 100078, guid: 5a35c5f0a89b9654d897ccd7c8f81bd0, type: 3}
      propertyPath: m_TagString
      value: enemie
      objectReference: {fileID: 0}
    - target: {fileID: 100000, guid: 5a35c5f0a89b9654d897ccd7c8f81bd0, type: 3}
      propertyPath: m_Layer
      value: 8
      objectReference: {fileID: 0}
    - target: {fileID: 100074, guid: 5a35c5f0a89b9654d897ccd7c8f81bd0, type: 3}
      propertyPath: m_Layer
      value: 8
      objectReference: {fileID: 0}
    - target: {fileID: 100076, guid: 5a35c5f0a89b9654d897ccd7c8f81bd0, type: 3}
      propertyPath: m_Layer
      value: 8
      objectReference: {fileID: 0}
    - target: {fileID: 400078, guid: 5a35c5f0a89b9654d897ccd7c8f81bd0, type: 3}
      propertyPath: m_LocalPosition.x
      value: 11.454102
      objectReference: {fileID: 0}
    - target: {fileID: 400078, guid: 5a35c5f0a89b9654d897ccd7c8f81bd0, type: 3}
      propertyPath: m_LocalPosition.y
      value: 10.944389
      objectReference: {fileID: 0}
    - target: {fileID: 400078, guid: 5a35c5f0a89b9654d897ccd7c8f81bd0, type: 3}
      propertyPath: m_LocalPosition.z
      value: -36.196686
      objectReference: {fileID: 0}
    - target: {fileID: 400078, guid: 5a35c5f0a89b9654d897ccd7c8f81bd0, type: 3}
      propertyPath: m_LocalRotation.x
      value: 0
      objectReference: {fileID: 0}
    - target: {fileID: 400078, guid: 5a35c5f0a89b9654d897ccd7c8f81bd0, type: 3}
      propertyPath: m_LocalRotation.y
      value: 0
      objectReference: {fileID: 0}
    - target: {fileID: 400078, guid: 5a35c5f0a89b9654d897ccd7c8f81bd0, type: 3}
      propertyPath: m_LocalRotation.z
      value: 0
      objectReference: {fileID: 0}
    - target: {fileID: 400078, guid: 5a35c5f0a89b9654d897ccd7c8f81bd0, type: 3}
      propertyPath: m_LocalRotation.w
      value: 1
      objectReference: {fileID: 0}
    - target: {fileID: 400078, guid: 5a35c5f0a89b9654d897ccd7c8f81bd0, type: 3}
      propertyPath: m_RootOrder
      value: 0
      objectReference: {fileID: 0}
    - target: {fileID: 400078, guid: 5a35c5f0a89b9654d897ccd7c8f81bd0, type: 3}
      propertyPath: m_LocalEulerAnglesHint.x
      value: 0
      objectReference: {fileID: 0}
    - target: {fileID: 400078, guid: 5a35c5f0a89b9654d897ccd7c8f81bd0, type: 3}
      propertyPath: m_LocalEulerAnglesHint.y
      value: 0
      objectReference: {fileID: 0}
    - target: {fileID: 400078, guid: 5a35c5f0a89b9654d897ccd7c8f81bd0, type: 3}
      propertyPath: m_LocalEulerAnglesHint.z
      value: 0
      objectReference: {fileID: 0}
    - target: {fileID: 400078, guid: 5a35c5f0a89b9654d897ccd7c8f81bd0, type: 3}
      propertyPath: m_LocalScale.x
      value: 50
      objectReference: {fileID: 0}
    - target: {fileID: 400078, guid: 5a35c5f0a89b9654d897ccd7c8f81bd0, type: 3}
      propertyPath: m_LocalScale.y
      value: 50
      objectReference: {fileID: 0}
    - target: {fileID: 400078, guid: 5a35c5f0a89b9654d897ccd7c8f81bd0, type: 3}
      propertyPath: m_LocalScale.z
      value: 50
      objectReference: {fileID: 0}
    - target: {fileID: 100038, guid: 5a35c5f0a89b9654d897ccd7c8f81bd0, type: 3}
      propertyPath: m_Layer
      value: 8
      objectReference: {fileID: 0}
    - target: {fileID: 100036, guid: 5a35c5f0a89b9654d897ccd7c8f81bd0, type: 3}
      propertyPath: m_Layer
      value: 8
      objectReference: {fileID: 0}
    - target: {fileID: 100002, guid: 5a35c5f0a89b9654d897ccd7c8f81bd0, type: 3}
      propertyPath: m_Layer
      value: 8
      objectReference: {fileID: 0}
    - target: {fileID: 100068, guid: 5a35c5f0a89b9654d897ccd7c8f81bd0, type: 3}
      propertyPath: m_Layer
      value: 8
      objectReference: {fileID: 0}
    - target: {fileID: 100062, guid: 5a35c5f0a89b9654d897ccd7c8f81bd0, type: 3}
      propertyPath: m_Layer
      value: 8
      objectReference: {fileID: 0}
    - target: {fileID: 100070, guid: 5a35c5f0a89b9654d897ccd7c8f81bd0, type: 3}
      propertyPath: m_Layer
      value: 8
      objectReference: {fileID: 0}
    - target: {fileID: 100028, guid: 5a35c5f0a89b9654d897ccd7c8f81bd0, type: 3}
      propertyPath: m_Layer
      value: 8
      objectReference: {fileID: 0}
    - target: {fileID: 100034, guid: 5a35c5f0a89b9654d897ccd7c8f81bd0, type: 3}
      propertyPath: m_Layer
      value: 8
      objectReference: {fileID: 0}
    - target: {fileID: 100040, guid: 5a35c5f0a89b9654d897ccd7c8f81bd0, type: 3}
      propertyPath: m_Layer
      value: 8
      objectReference: {fileID: 0}
    - target: {fileID: 100006, guid: 5a35c5f0a89b9654d897ccd7c8f81bd0, type: 3}
      propertyPath: m_Layer
      value: 8
      objectReference: {fileID: 0}
    - target: {fileID: 100056, guid: 5a35c5f0a89b9654d897ccd7c8f81bd0, type: 3}
      propertyPath: m_Layer
      value: 8
      objectReference: {fileID: 0}
    - target: {fileID: 100042, guid: 5a35c5f0a89b9654d897ccd7c8f81bd0, type: 3}
      propertyPath: m_Layer
      value: 8
      objectReference: {fileID: 0}
    - target: {fileID: 100022, guid: 5a35c5f0a89b9654d897ccd7c8f81bd0, type: 3}
      propertyPath: m_Layer
      value: 8
      objectReference: {fileID: 0}
    - target: {fileID: 100004, guid: 5a35c5f0a89b9654d897ccd7c8f81bd0, type: 3}
      propertyPath: m_Layer
      value: 8
      objectReference: {fileID: 0}
    - target: {fileID: 100008, guid: 5a35c5f0a89b9654d897ccd7c8f81bd0, type: 3}
      propertyPath: m_Layer
      value: 8
      objectReference: {fileID: 0}
    - target: {fileID: 100032, guid: 5a35c5f0a89b9654d897ccd7c8f81bd0, type: 3}
      propertyPath: m_Layer
      value: 8
      objectReference: {fileID: 0}
    - target: {fileID: 100066, guid: 5a35c5f0a89b9654d897ccd7c8f81bd0, type: 3}
      propertyPath: m_Layer
      value: 8
      objectReference: {fileID: 0}
    - target: {fileID: 100064, guid: 5a35c5f0a89b9654d897ccd7c8f81bd0, type: 3}
      propertyPath: m_Layer
      value: 8
      objectReference: {fileID: 0}
    - target: {fileID: 100072, guid: 5a35c5f0a89b9654d897ccd7c8f81bd0, type: 3}
      propertyPath: m_Layer
      value: 8
      objectReference: {fileID: 0}
    - target: {fileID: 100030, guid: 5a35c5f0a89b9654d897ccd7c8f81bd0, type: 3}
      propertyPath: m_Layer
      value: 8
      objectReference: {fileID: 0}
    - target: {fileID: 100058, guid: 5a35c5f0a89b9654d897ccd7c8f81bd0, type: 3}
      propertyPath: m_Layer
      value: 8
      objectReference: {fileID: 0}
    - target: {fileID: 100024, guid: 5a35c5f0a89b9654d897ccd7c8f81bd0, type: 3}
      propertyPath: m_Layer
      value: 8
      objectReference: {fileID: 0}
    - target: {fileID: 100060, guid: 5a35c5f0a89b9654d897ccd7c8f81bd0, type: 3}
      propertyPath: m_Layer
      value: 8
      objectReference: {fileID: 0}
    - target: {fileID: 100026, guid: 5a35c5f0a89b9654d897ccd7c8f81bd0, type: 3}
      propertyPath: m_Layer
      value: 8
      objectReference: {fileID: 0}
    - target: {fileID: 100050, guid: 5a35c5f0a89b9654d897ccd7c8f81bd0, type: 3}
      propertyPath: m_Layer
      value: 8
      objectReference: {fileID: 0}
    - target: {fileID: 100044, guid: 5a35c5f0a89b9654d897ccd7c8f81bd0, type: 3}
      propertyPath: m_Layer
      value: 8
      objectReference: {fileID: 0}
    - target: {fileID: 100016, guid: 5a35c5f0a89b9654d897ccd7c8f81bd0, type: 3}
      propertyPath: m_Layer
      value: 8
      objectReference: {fileID: 0}
    - target: {fileID: 100010, guid: 5a35c5f0a89b9654d897ccd7c8f81bd0, type: 3}
      propertyPath: m_Layer
      value: 8
      objectReference: {fileID: 0}
    - target: {fileID: 100052, guid: 5a35c5f0a89b9654d897ccd7c8f81bd0, type: 3}
      propertyPath: m_Layer
      value: 8
      objectReference: {fileID: 0}
    - target: {fileID: 100046, guid: 5a35c5f0a89b9654d897ccd7c8f81bd0, type: 3}
      propertyPath: m_Layer
      value: 8
      objectReference: {fileID: 0}
    - target: {fileID: 100018, guid: 5a35c5f0a89b9654d897ccd7c8f81bd0, type: 3}
      propertyPath: m_Layer
      value: 8
      objectReference: {fileID: 0}
    - target: {fileID: 100012, guid: 5a35c5f0a89b9654d897ccd7c8f81bd0, type: 3}
      propertyPath: m_Layer
      value: 8
      objectReference: {fileID: 0}
    - target: {fileID: 100048, guid: 5a35c5f0a89b9654d897ccd7c8f81bd0, type: 3}
      propertyPath: m_Layer
      value: 8
      objectReference: {fileID: 0}
    - target: {fileID: 100054, guid: 5a35c5f0a89b9654d897ccd7c8f81bd0, type: 3}
      propertyPath: m_Layer
      value: 8
      objectReference: {fileID: 0}
    - target: {fileID: 100020, guid: 5a35c5f0a89b9654d897ccd7c8f81bd0, type: 3}
      propertyPath: m_Layer
      value: 8
      objectReference: {fileID: 0}
    - target: {fileID: 100014, guid: 5a35c5f0a89b9654d897ccd7c8f81bd0, type: 3}
      propertyPath: m_Layer
      value: 8
      objectReference: {fileID: 0}
    m_RemovedComponents: []
  m_SourcePrefab: {fileID: 100100000, guid: 5a35c5f0a89b9654d897ccd7c8f81bd0, type: 3}
--- !u!1 &3800986702288475068 stripped
GameObject:
  m_CorrespondingSourceObject: {fileID: 100078, guid: 5a35c5f0a89b9654d897ccd7c8f81bd0,
    type: 3}
  m_PrefabInstance: {fileID: 3800986702288442706}
  m_PrefabAsset: {fileID: 0}
